module gitlab.com/golang/rest-api

go 1.15

require (
	github.com/go-pg/pg v8.0.7+incompatible
	github.com/gorilla/mux v1.8.0
	github.com/jinzhu/inflection v1.0.0 // indirect
	github.com/lib/pq v1.8.0
	github.com/niemeyer/pretty v0.0.0-20200227124842-a10e7caefd8e // indirect
	github.com/onsi/ginkgo v1.14.1 // indirect
	github.com/onsi/gomega v1.10.2 // indirect
	gopkg.in/check.v1 v1.0.0-20200902074654-038fdea0a05b // indirect
	mellium.im/sasl v0.2.1 // indirect
)
